 GLY  A  3 57
 ILE  A  4 275
 ALA  A  5 68
 LEU  A  6 27
 SER  A  7 172
 ARG  A  8 576
 LEU  A  9 109
 ALA  A  10 109
 GLN  A  11 517
 GLU  A  12 340
 ARG  A  13 384
 LYS  A  14 480
 ALA  A  15 253
 TRP  A  16 207
 ARG  A  17 558
 LYS  A  18 620
 ASP  A  19 315
 HIS  A  20 115
 PRO  A  21 69
 PHE  A  22 654
 GLY  A  23 236
 PHE  A  24 298
 VAL  A  25 368
 ALA  A  26 161
 VAL  A  27 404
 PRO  A  28 246
 THR  A  29 169
 LYS  A  30 243
 ASN  A  31 1
 ASP  A  33 5
 GLY  A  34 61
 THR  A  35 87
 MET  A  36 204
 ASN  A  37 14
 LEU  A  38 18
 ASN  A  40 14
 TRP  A  41 94
 GLU  A  42 277
 CYS  A  43 115
 ALA  A  44 155
 ILE  A  45 107
 PRO  A  46 186
 GLY  A  47 78
 LYS  A  48 159
 LYS  A  49 241
 GLY  A  50 28
 THR  A  51 41
 PRO  A  52 12
 TRP  A  53 47
 GLU  A  54 166
 GLY  A  55 105
 GLY  A  56 91
 LEU  A  57 330
 PHE  A  58 96
 LYS  A  59 149
 LEU  A  60 41
 ARG  A  61 76
 MET  A  62 4
 LEU  A  63 0
 PHE  A  64 0
 ASP  A  66 1
 ASP  A  67 16
 TYR  A  68 197
 PRO  A  69 186
 SER  A  70 55
 SER  A  71 8
 PRO  A  73 1
 LYS  A  74 56
 CYS  A  75 16
 LYS  A  76 36
 PHE  A  77 4
 GLU  A  78 40
 PRO  A  79 3
 PRO  A  80 1
 PHE  A  82 5
 HIS  A  83 78
 PRO  A  84 121
 ASN  A  85 177
 VAL  A  86 112
 TYR  A  87 513
 PRO  A  88 271
 SER  A  89 83
 GLY  A  90 21
 THR  A  91 107
 VAL  A  92 110
 LEU  A  94 261
 SER  A  95 231
 ILE  A  96 290
 LEU  A  97 99
 GLU  A  98 125
 GLU  A  99 0
 ASP  A  100 0
 LYS  A  101 161
 ASP  A  102 340
 TRP  A  103 141
 ARG  A  104 516
 PRO  A  105 227
 ALA  A  106 319
 ILE  A  107 360
 THR  A  108 321
 ILE  A  109 74
 LYS  A  110 278
 GLN  A  111 444
 ILE  A  112 64
 LEU  A  113 26
 LEU  A  114 183
 GLY  A  115 135
 ILE  A  116 66
 GLN  A  117 102
 GLU  A  118 420
 LEU  A  119 200
 LEU  A  120 36
 ASN  A  121 11
 GLU  A  122 272
 PRO  A  123 113
 ASN  A  124 198
 ILE  A  125 173
 GLN  A  126 268
 ASP  A  127 319
 PRO  A  128 372
 ALA  A  129 268
 GLN  A  130 351
 ALA  A  131 443
 GLU  A  132 493
 ALA  A  133 70
 TYR  A  134 638
 THR  A  135 403
 ILE  A  136 119
 TYR  A  137 15
 GLN  A  139 248
 ASN  A  140 3
 ARG  A  147 13
 ALA  A  152 22
 LYS  A  153 4
 PHE  A  155 31
 ALA  A  156 72
 PRO  A  157 311
